<svg xmlns="http://www.w3.org/2000/svg" width="27.793" height="27.793" viewBox="0 0 27.793 27.793">
  <g id="Grupo_163" data-name="Grupo 163" transform="translate(-559.254 -8208.763)">
    <g id="Grupo_162" data-name="Grupo 162" transform="translate(559.254 8208.763)">
      <path id="Trazado_35" data-name="Trazado 35" d="M878.647-268.1a13.912,13.912,0,0,0-13.9,13.9,13.912,13.912,0,0,0,13.9,13.9,13.912,13.912,0,0,0,13.9-13.9A13.913,13.913,0,0,0,878.647-268.1Zm0,25.935A12.052,12.052,0,0,1,866.608-254.2a12.052,12.052,0,0,1,12.039-12.038A12.052,12.052,0,0,1,890.685-254.2,12.052,12.052,0,0,1,878.647-242.16Z" transform="translate(-864.75 268.095)" fill="#0d478e"/>
      <path id="Trazado_36" data-name="Trazado 36" d="M885.153-260.986h-2.784a3.156,3.156,0,0,0-3.152,3.152v2.151h-1.281a.4.4,0,0,0-.4.4v2.432a.4.4,0,0,0,.4.4h1.281v7.879a.4.4,0,0,0,.4.4h2.951a.4.4,0,0,0,.4-.4v-7.879h1.946a.4.4,0,0,0,.4-.366l.205-2.433a.4.4,0,0,0-.105-.3.4.4,0,0,0-.293-.129h-2.151v-1.533a.54.54,0,0,1,.54-.539h1.647a.4.4,0,0,0,.4-.4v-2.432A.4.4,0,0,0,885.153-260.986Z" transform="translate(-867.662 266.476)" fill="#0d478e"/>
    </g>
  </g>
</svg>
